%YAML 1.1
%TAG !u! tag:unity3d.com,2011:
--- !u!114 &11400000
MonoBehaviour:
  m_ObjectHideFlags: 0
  m_CorrespondingSourceObject: {fileID: 0}
  m_PrefabInstance: {fileID: 0}
  m_PrefabAsset: {fileID: 0}
  m_GameObject: {fileID: 0}
  m_Enabled: 1
  m_EditorHideFlags: 0
  m_Script: {fileID: 11500000, guid: 147d743152d75b346866ef0a4600e9ae, type: 3}
  m_Name: HTC Vive
  m_EditorClassIdentifier: 
  controllerId: vive_controller
  leftController:
    prefab: {fileID: 4235252556075597286, guid: 7db302169c10a2845a42193d9701d7be,
      type: 3}
    hideSteamVrModel: 1
  rightController:
    prefab: {fileID: 3969874572781051363, guid: c4c5607c5a560ce469149e4318e777b0,
      type: 3}
    hideSteamVrModel: 1
