%YAML 1.1
%TAG !u! tag:unity3d.com,2011:
--- !u!114 &11400000
MonoBehaviour:
  m_ObjectHideFlags: 0
  m_CorrespondingSourceObject: {fileID: 0}
  m_PrefabInstance: {fileID: 0}
  m_PrefabAsset: {fileID: 0}
  m_GameObject: {fileID: 0}
  m_Enabled: 1
  m_EditorHideFlags: 0
  m_Script: {fileID: 11500000, guid: 622396f3fd9749438258ec6593748e9d, type: 3}
  m_Name: Phosphorus
  m_EditorClassIdentifier: 
  displayName: Phosphorus
  image: {fileID: 21300000, guid: e9a73a2a9953b164fa14519b15351265, type: 3}
  toolEnd: {fileID: 0}
  startAction:
    m_PersistentCalls:
      m_Calls:
      - m_Target: {fileID: 11400000, guid: bcc67b2b2d832e442be7a369e71d0310, type: 2}
        m_MethodName: StartBuildAtomAction
        m_Mode: 3
        m_Arguments:
          m_ObjectArgument: {fileID: 0}
          m_ObjectArgumentAssemblyTypeName: UnityEngine.Object, UnityEngine
          m_IntArgument: 15
          m_FloatArgument: 0
          m_StringArgument: 
          m_BoolArgument: 0
        m_CallState: 2
    m_TypeName: NarupaBuilder.Tools.Tool+StartActionEvent, NarupaBuilder, Version=0.0.0.0,
      Culture=neutral, PublicKeyToken=null
