{
    "name": "Narupa.Builder.Audio",
    "references": [
        "SteamVR"
    ],
    "optionalUnityReferences": [],
    "includePlatforms": [],
    "excludePlatforms": [],
    "allowUnsafeCode": false,
    "overrideReferences": true,
    "precompiledReferences": [],
    "autoReferenced": false,
    "defineConstraints": []
}