{
   "action_manifest_version" : 0,
   "alias_info" : {},
   "app_key" : "narupa.builder.exe",
   "bindings" : {
      "/actions/buggy" : {
         "chords" : [],
         "haptics" : [],
         "poses" : [],
         "skeleton" : [],
         "sources" : []
      },
      "/actions/builder" : {
         "chords" : [],
         "haptics" : [
            {
               "output" : "/actions/builder/out/haptic",
               "path" : "/user/hand/left/output/haptic"
            },
            {
               "output" : "/actions/builder/out/haptic",
               "path" : "/user/hand/right/output/haptic"
            }
         ],
         "poses" : [
            {
               "output" : "/actions/builder/in/pose",
               "path" : "/user/hand/left/pose/raw"
            },
            {
               "output" : "/actions/builder/in/pose",
               "path" : "/user/hand/right/pose/raw"
            }
         ],
         "sources" : [
            {
               "inputs" : {
                  "east" : {
                     "output" : "/actions/builder/in/increasetoolradius"
                  },
                  "north" : {
                     "output" : "/actions/builder/in/radialsubtoolmenu"
                  },
                  "south" : {
                     "output" : "/actions/builder/in/radialtoolmenu"
                  },
                  "west" : {
                     "output" : "/actions/builder/in/decreasetoolradius"
                  }
               },
               "mode" : "dpad",
               "parameters" : {
                  "overlap_pct" : "0",
                  "sub_mode" : "touch"
               },
               "path" : "/user/hand/right/input/thumbstick"
            },
            {
               "inputs" : {
                  "east" : {
                     "output" : "/actions/builder/in/redo"
                  },
                  "south" : {
                     "output" : "/actions/builder/in/globalmenu"
                  },
                  "west" : {
                     "output" : "/actions/builder/in/undo"
                  }
               },
               "mode" : "dpad",
               "parameters" : {
                  "overlap_pct" : "0",
                  "sub_mode" : "touch"
               },
               "path" : "/user/hand/left/input/thumbstick"
            },
            {
               "inputs" : {
                  "click" : {
                     "output" : "/actions/builder/in/back"
                  }
               },
               "mode" : "button",
               "path" : "/user/hand/right/input/b"
            },
            {
               "inputs" : {
                  "click" : {
                     "output" : "/actions/builder/in/performaction"
                  }
               },
               "mode" : "button",
               "parameters" : {
                  "force_input" : "value"
               },
               "path" : "/user/hand/right/input/trigger"
            },
            {
               "inputs" : {
                  "click" : {
                     "output" : "/actions/builder/in/spacegrab"
                  }
               },
               "mode" : "button",
               "path" : "/user/hand/left/input/a"
            },
            {
               "inputs" : {
                  "click" : {
                     "output" : "/actions/builder/in/spacegrab"
                  }
               },
               "mode" : "button",
               "path" : "/user/hand/right/input/a"
            },
            {
               "inputs" : {
                  "click" : {
                     "output" : "/actions/builder/in/minimise"
                  }
               },
               "mode" : "button",
               "path" : "/user/hand/left/input/b"
            }
         ]
      },
      "/actions/default" : {
         "chords" : [],
         "haptics" : [],
         "poses" : [],
         "skeleton" : [],
         "sources" : []
      },
      "/actions/platformer" : {
         "chords" : [],
         "haptics" : [],
         "poses" : [],
         "skeleton" : [],
         "sources" : []
      }
   },
   "category" : "steamvr_input",
   "controller_type" : "knuckles",
   "description" : "",
   "name" : "Narupa Builder [Valve Index]",
   "options" : {},
   "simulated_actions" : []
}
