%YAML 1.1
%TAG !u! tag:unity3d.com,2011:
--- !u!114 &11400000
MonoBehaviour:
  m_ObjectHideFlags: 0
  m_CorrespondingSourceObject: {fileID: 0}
  m_PrefabInstance: {fileID: 0}
  m_PrefabAsset: {fileID: 0}
  m_GameObject: {fileID: 0}
  m_Enabled: 1
  m_EditorHideFlags: 0
  m_Script: {fileID: 11500000, guid: 622396f3fd9749438258ec6593748e9d, type: 3}
  m_Name: Build Fragment
  m_EditorClassIdentifier: 
  actions:
  - {fileID: 11400000, guid: 109be546b9d65ed4aabdbc1798d6e147, type: 2}
  - {fileID: 11400000, guid: 026ce78dea1357e4f9e19e3a9a268d5e, type: 2}
  - {fileID: 11400000, guid: 8d7abf89a84437641ae2832b5bfbb03b, type: 2}
  - {fileID: 11400000, guid: f1d2d5d51fa376f49983ec1e27eb5c2c, type: 2}
  - {fileID: 11400000, guid: 1f0f24294823c634da4c696bc3f8a441, type: 2}
  - {fileID: 11400000, guid: 51b2922ab55409d499f30e524ba5ffbc, type: 2}
  displayName: Build Fragment
  image: {fileID: 21300000, guid: 1ac2984e6eb19a54e95bbd301a6d69f6, type: 3}
  toolEnd: {fileID: 0}
  startAction:
    m_PersistentCalls:
      m_Calls:
      - m_Target: {fileID: 11400000, guid: bcc67b2b2d832e442be7a369e71d0310, type: 2}
        m_MethodName: StartBuildFragmentAction
        m_Mode: 1
        m_Arguments:
          m_ObjectArgument: {fileID: 0}
          m_ObjectArgumentAssemblyTypeName: UnityEngine.Object, UnityEngine
          m_IntArgument: 0
          m_FloatArgument: 0
          m_StringArgument: 
          m_BoolArgument: 0
        m_CallState: 2
    m_TypeName: NarupaBuilder.Tools.Tool+StartActionEvent, NarupaBuilder, Version=0.0.0.0,
      Culture=neutral, PublicKeyToken=null
