%YAML 1.1
%TAG !u! tag:unity3d.com,2011:
--- !u!114 &11400000
MonoBehaviour:
  m_ObjectHideFlags: 0
  m_CorrespondingSourceObject: {fileID: 0}
  m_PrefabInstance: {fileID: 0}
  m_PrefabAsset: {fileID: 0}
  m_GameObject: {fileID: 0}
  m_Enabled: 1
  m_EditorHideFlags: 0
  m_Script: {fileID: 11500000, guid: 037338ae0c9540f0afbc7bec028359a5, type: 3}
  m_Name: Select
  m_EditorClassIdentifier: 
  actions:
  - {fileID: 11400000, guid: 42b4c6f8b4ce57c41b4b47732c9436b0, type: 2}
  - {fileID: 11400000, guid: a86c7301acab50046a6387769bb4fc64, type: 2}
  displayName: Select
  image: {fileID: 21300000, guid: 28760e787cb7fdd4b9044d5907a90579, type: 3}
  toolEnd: {fileID: 249107540023497658, guid: 92bd6cc2a3aaa5148b36134f15b524ef, type: 3}
  tools:
  - {fileID: 11400000, guid: 966e9141dd3d4eb459718871b6ced5e6, type: 2}
  - {fileID: 11400000, guid: 734a6635b0413734583f68921b4d83dd, type: 2}
